1 100 119
1 200 125
1 300 128
1 500 144
500 1000 179
1 10000 262
6929 8017 257
9727 7442 260
6111 1769 238
8005 3370 262
2663 3566 217
6192 3029 262
5864 845 238
4332 4553 215
4588 300 238
1274 9303 262
3673 1616 217
6973 7919 239
3087 1094 217
8532 2610 262
4601 6406 262
3320 1270 217
1392 1895 180
7041 7816 239
4185 398 238
4623 3283 238
4100 5240 215
6396 6493 169
5732 166 238
8941 4547 262
869 2097 182
7493 4146 262
5745 3745 236
6157 179 238
9257 6070 262
6994 5063 262
2450 6552 262
2348 8880 262
4606 2 238
5126 5445 192
5871 4089 236
2131 700 182
9925 1282 262
7397 6152 262
8048 3937 262
9567 2936 262
4086 9525 262
7055 6144 262
1097 9208 262
899 7921 262
9244 444 262
5624 3857 236
4851 8430 262
3746 2880 238
1183 4654 238
9946 6469 260
8961 9953 260
6400 8997 257
7398 9173 252
9096 4098 262
8807 7956 252
3009 3859 238
4605 7779 262
7323 6163 262
4818 5164 210
8347 4662 262
1722 5679 238
4621 7752 262
1240 9866 262
6510 8698 257
6091 1305 238
8108 5250 262
5485 5106 192
3523 5601 238
13 8196 262
1719 1192 180
1593 879 182
2135 8797 262
442 6393 262
231 8321 262
2361 8832 262
6001 38 238
8949 9286 260
5476 1533 238
936 4232 238
3806 1274 238
7556 7436 208
2385 9169 262
3673 9537 262
4738 5534 210
8047 7918 252
9819 8099 260
7437 4439 262
5786 8857 262
5339 4474 210
3861 8591 262
9332 2555 262
2932 3554 199
8921 9355 260
1376 9932 262
525 9419 262
2307 2038 183
4219 8600 262
5810 2311 238
6978 9181 252
9805 2313 262
3480 9601 262
3813 1237 238
5814 7080 262
3629 1120 217
5796 7297 262
9065 8207 247
4909 2596 238
130 5837 238
3926 8147 262
6230 6880 244
8593 6498 257
7134 3220 262
686 4464 238
2099 1161 182
5880 7744 262
470 8588 262
5103 3986 215
8646 3988 262
8180 7901 252
194 9576 262
973 5832 238
6213 3221 262
9495 533 262
6155 9968 262
4327 5151 215
6940 2804 262
7532 3251 262
8248 4646 262
5379 6958 262
646 2483 209
3700 7314 262
7605 2537 262
9656 98 262
7211 590 262
1025 3775 238
4651 6027 236
613 8798 262
5693 8513 262
4696 8041 262
5454 3733 215
6975 9226 252
2993 8699 262
8670 7018 252
7605 5199 262
2614 1204 209
3989 9384 262
22 1837 182
5981 2447 238
6774 4669 262
2375 471 183
6435 3753 262
2290 1921 183
431 4280 238
4517 172 238
3380 8779 262
6759 820 262
2365 1070 183
1295 1437 177
1355 7297 262
1147 6051 238
2524 6004 238
7879 8543 252
7955 2007 262
3912 5441 215
2190 2795 209
2205 3233 217
9715 6672 260
6001 2008 238
2199 3565 217
3025 3773 238
2128 7771 262
997 1228 182
2246 5879 238
3034 2817 217
9581 1329 262
7325 3532 262
5636 9612 262
10 2909 209
5023 3749 215
2380 47 183
1047 6241 262
1015 4349 238
5025 3797 215
9409 8241 260
6618 5792 262
9757 4920 262
189 6307 262
9174 7354 252
5068 1834 238
7895 6685 257
1586 2350 183
5798 514 238
9820 7555 260
21 9133 262
755 2139 182
1091 762 179
56 5986 238
9093 4152 262
9348 4725 262
8943 7235 252
2583 4496 238
7153 8087 252
8754 7662 252
3128 3811 238
5724 4990 236
9310 2187 262
7938 8676 252
1872 1156 182
9505 7402 260
