1 1 1
1 10 20
10 20 21
20 30 112
30 40 107
40 50 110
50 60 113
60 70 108
70 80 116
80 90 111
90 100 119
100 200 125
200 300 128
300 400 144
400 500 142
500 600 137
600 700 145
700 800 171
800 900 179
900 1000 174
1000 2000 182
2000 3000 217
3000 4000 238
4000 5000 215
5000 6000 236
6000 7000 262
7000 8000 252
8000 9000 247
9000 10000 260
10000 20000 279
20000 30000 308
30000 40000 324
40000 50000 314
50000 60000 340
60000 70000 335
70000 80000 351
80000 90000 333
90000 100000 333
100000 200000 383
200000 300000 443
300000 400000 441
400000 500000 449
500000 600000 470
600000 700000 509
700000 800000 504
800000 900000 525
201 210 89
999999 999999 259
1 999999 525
54789 98798 351
43589 43589 164
58847 478326 449
12356 894357 525
56759 908768 525
23 78967 351
32456 98756 351
87645 878987 525
56437 254658 443
35908 438999 449
43904 90438 351
9000 900000 525
43288 89034 351
32940 34290 311
432980 543890 470
689069 909869 525
123489 189348 383
67859 999999 525
9 99 119
1 11 20
54890 58904 322
584903 894058 525
20957 209895 383
987765 327849 525
984733 378945 525
58940 90828 351
1 1000 179
2 222222 386
1 11111 268
666 8888 262
4530 34589 311
7895 78968 351
20933 29048 308
48905 58905 340
34598 39857 324
69085 85785 351
98678 999999 525
4378 344485 443
58968 89867 351
789 78989 351
7 77 116
8478 89875 351
6789 6890 182
99 99 26
7895 6789 257
27893 57898 340
58905 58905 105
68905 58905 335
7689 875898 525
