540747 284095 470
318700 811628 509
7883 455787 449
186809 827773 509
911610 996378 507
214999 362386 443
275975 892537 525
993348 108982 525
354382 128685 443
28945 36103 324
192004 943796 525
99489 650210 509
306867 237239 407
927313 245454 525
353778 897027 525
712060 33392 509
983679 970503 458
620561 570062 447
987654 341128 525
893945 73672 525
54321 936810 525
532417 504244 470
4926 314682 443
668232 72557 509
535794 978212 525
760948 222295 509
487694 652770 509
925985 464675 525
27239 602787 470
198714 263604 443
734919 264552 509
501060 602583 470
470515 355949 449
938216 947234 507
867831 951200 507
137996 128816 344
434021 375758 449
470675 424298 444
13106 757570 509
245492 847640 525
846326 335548 525
88605 315626 443
481041 37578 449
117146 152468 375
169288 628829 509
384266 880149 525
910248 359357 525
173789 989727 525
154119 600389 470
946701 574002 525
731127 794297 468
565388 971464 525
114589 171060 383
106990 95072 354
619306 456108 470
472618 357113 449
570140 582805 390
771420 772827 362
719612 279066 509
731824 909370 525
989719 104858 525
850160 384406 525
744145 496273 509
857047 191968 525
700771 289639 509
54736 246408 443
752773 503368 509
117941 400895 443
698297 61309 509
2783 363286 443
550922 716231 509
846590 376379 525
516366 719867 509
851822 867778 419
167865 221562 386
992569 490843 525
560175 285611 470
759859 98108 509
658955 431392 509
644831 183840 509
421576 547748 470
783571 523762 509
494908 867277 525
832832 219269 509
644446 420970 509
622904 22864 470
170606 612867 470
835275 138185 509
664628 926486 525
326732 228823 443
192548 88342 383
969631 597 525
110613 567744 470
619002 828164 509
342195 322749 384
141902 73865 354
333757 813916 509
121249 595877 470
651759 812700 504
366950 620538 470
346990 215997 443
277417 588991 470
526741 362082 470
835084 300093 509
724959 808268 468
86841 508265 449
507170 353018 449
594883 964468 525
12022 574436 470
340321 656002 509
567128 53349 470
680032 788922 504
743891 735848 424
639814 799754 504
950672 237657 525
224225 387621 443
146447 796782 509
658303 575127 509
424826 560003 470
166025 394207 443
308694 635941 509
33378 923664 525
761310 154889 509
479560 786619 509
396127 998246 525
765855 828001 468
747183 189097 509
279497 537576 470
44188 254095 443
492472 837228 509
288667 871363 525
935211 652227 525
487075 979433 525
352200 110968 443
652436 467229 509
220596 660018 509
644998 597207 509
718850 16948 509
572757 212802 470
141241 869575 525
100204 645039 509
120973 231295 443
793231 238877 509
632671 875474 525
926051 431145 525
563491 517931 452
176582 868000 525
702178 794454 504
189999 75377 383
587082 275332 470
832367 244720 509
851023 80448 525
700312 929404 525
687161 677903 398
933878 123184 525
308867 141514 443
171361 451893 449
3729 735009 509
647964 499377 509
417600 660990 509
832184 244297 509
296236 694430 509
879379 827898 525
715586 385352 509
423215 461999 444
416076 989076 525
832824 302538 509
313679 596661 470
90133 4334 351
666645 1345 509
833001 181916 509
262685 670942 509
604585 617780 447
930688 462524 525
812750 315389 509
341830 917131 525
331309 172834 443
290876 241498 407
967894 944792 414
936234 289232 525
631128 199083 509
384568 483412 449
319144 380813 441
957755 123933 525
451659 352333 449
967636 655614 525
698245 376655 509
199733 669461 509
814063 821617 450
775517 41190 509
8432 182844 383
272340 59545 443
152660 954468 525
909231 44618 525
569241 74358 470
748418 930454 525
738446 866142 525
168284 38089 383
867013 240668 525
1553 361175 443
904809 728936 525
337384 356419 441
72938 45871 340
509780 623468 470
16957 194987 383
886909 364574 525
57178 162436 383
252307 836473 509
629098 744385 504
956735 83187 525
540191 910689 525
544663 467495 470
861261 289034 525
815296 491261 509
154105 403539 443
205391 526739 470
59548 321515 443
723156 408020 509
392282 378717 436
997782 349351 525
634312 132286 509
720220 323233 509
563114 26799 470
393401 974167 525
615762 722570 509
529110 719221 509
997439 528360 525
823300 334755 509
713405 643448 504
863080 909520 445
306347 613548 470
431681 63686 449
555245 146362 470
413612 60956 449
908806 1832 525
884556 350693 525
331579 859709 525
459592 724804 509
65035 177435 383
565997 561353 421
368519 450944 449
242355 484833 449
773094 801489 468
455797 678770 509
600190 707127 509
628656 650654 416
165405 212826 373
562342 838924 525
580430 56218 470
261173 239953 368
